<svg width="375" height="251" viewBox="0 0 375 251" fill="none" xmlns="http://www.w3.org/2000/svg">
<path d="M0 13C0 5.82029 5.8203 0 13 0H362C369.18 0 375 5.8203 375 13V251H0V13Z" fill="url(#paint0_linear_17_46)"/>
<defs>
<linearGradient id="paint0_linear_17_46" x1="187.5" y1="0" x2="187.5" y2="251" gradientUnits="userSpaceOnUse">
<stop offset="0.0104167" stop-color="#BFA058"/>
<stop offset="0.776042" stop-color="#EEEDDE"/>
</linearGradient>
</defs>
</svg>
